EverydayBehaviours
…
Now trying it with summary stats.

## # A tibble: 80 x 3
## # Groups:   time [40]
##    time  targgend   impr
##    <fct> <fct>     <dbl>
##  1 1     0        0.605 
##  2 1     1        0.275 
##  3 2     0        0.432 
##  4 2     1        0.245 
##  5 3     0        0.281 
##  6 3     1        0.113 
##  7 4     0        0.0618
##  8 4     1        0.376 
##  9 5     0        0.0888
## 10 5     1        0.109 
## #  with 70 more rows
…
